<?xml version="1.0" standalone="no"?>
<!DOCTYPE svg PUBLIC "-//W3C//DTD SVG 20010904//EN"
 "http://www.w3.org/TR/2001/REC-SVG-20010904/DTD/svg10.dtd">
<svg version="1.0" xmlns="http://www.w3.org/2000/svg"
 width="512.000000pt" height="512.000000pt" viewBox="0 0 512.000000 512.000000"
 preserveAspectRatio="xMidYMid meet">
<metadata>
Created by potrace 1.11, written by Peter Selinger 2001-2013
</metadata>
<g transform="translate(0.000000,512.000000) scale(0.100000,-0.100000)"
fill="#000000" stroke="none">
<path d="M0 2560 l0 -2560 2560 0 2560 0 0 2560 0 2560 -2560 0 -2560 0 0
-2560z m2769 2274 c31 -16 64 -43 80 -65 17 -22 56 -121 96 -241 38 -112 70
-208 72 -214 2 -7 -85 -29 -233 -60 -207 -43 -234 -50 -216 -62 11 -7 151 -86
312 -175 l293 -162 74 -219 c40 -121 72 -220 71 -221 -2 -1 -176 -38 -388 -83
-488 -103 -979 -208 -1005 -216 -11 -3 11 -3 49 0 89 6 441 78 523 106 l62 21
403 -121 c222 -67 427 -129 457 -139 l53 -18 74 -214 c41 -118 71 -217 68
-220 -3 -3 -243 -56 -532 -118 -1078 -228 -1427 -303 -1442 -307 -8 -3 16 -3
55 0 81 6 710 134 807 165 l67 21 588 -106 c323 -59 594 -108 602 -109 10 -1
63 -146 157 -422 l142 -420 240 -5 240 -5 43 -30 c64 -45 89 -101 89 -197 l0
-78 -2105 0 -2105 0 0 78 c0 96 25 152 89 197 l43 30 241 5 240 5 50 150 c27
83 51 151 52 153 2 2 300 66 662 142 362 76 683 145 713 152 30 8 248 55 484
104 236 49 419 90 407 92 -12 2 -54 -2 -94 -8 -126 -19 -739 -151 -793 -170
l-53 -18 -508 99 c-279 54 -539 104 -576 111 -41 6 -66 15 -64 22 2 6 39 115
82 243 42 128 82 239 89 247 7 9 214 56 571 131 308 64 563 119 566 121 4 2
136 31 295 64 159 33 294 63 299 65 6 3 -21 2 -60 -1 -92 -8 -435 -78 -503
-104 l-52 -19 -455 129 c-251 72 -462 130 -470 130 -8 0 -15 6 -15 14 0 18
160 488 169 498 4 4 180 44 391 88 212 44 396 82 409 86 22 5 19 8 -26 29 -47
21 -563 295 -590 313 -17 11 193 627 230 675 15 19 50 47 79 61 49 25 60 26
203 26 143 0 154 -1 204 -26z m-773 -365 l-33 -92 -89 -32 c-465 -169 -852
-509 -1089 -958 -304 -575 -309 -1269 -13 -1855 37 -75 68 -136 68 -136 0 -1
-42 0 -92 1 l-93 2 -56 116 c-89 185 -152 390 -186 607 -27 173 -25 510 6 681
127 721 565 1304 1216 1618 113 55 340 139 377 139 14 0 12 -13 -16 -91z
m1259 50 c677 -227 1209 -788 1404 -1481 58 -206 75 -339 75 -583 1 -164 -4
-249 -17 -333 -34 -217 -97 -422 -186 -607 l-56 -116 -93 -2 c-50 -1 -92 -2
-92 -1 0 0 31 61 68 136 332 657 283 1436 -128 2048 -236 352 -581 622 -974
765 l-89 32 -33 92 c-29 79 -31 91 -16 91 9 0 71 -18 137 -41z m-1718 -3811
c249 -152 566 -252 887 -279 387 -32 838 76 1169 279 l67 42 138 0 137 -1 -30
-25 c-16 -13 -68 -51 -115 -83 -739 -507 -1711 -507 -2450 0 -47 32 -98 70
-115 83 l-30 25 137 1 138 0 67 -42z"/>
<path d="M2360 4162 c-133 -28 -165 -38 -134 -40 69 -5 314 52 314 73 0 3 -1
5 -2 4 -2 0 -82 -17 -178 -37z"/>
<path d="M2844 3821 c-81 -18 -148 -40 -141 -48 4 -3 289 53 312 62 30 11
-102 0 -171 -14z"/>
<path d="M1588 2093 c7 -3 16 -2 19 1 4 3 -2 6 -13 5 -11 0 -14 -3 -6 -6z"/>
<path d="M3478 2033 c6 -2 18 -2 25 0 6 3 1 5 -13 5 -14 0 -19 -2 -12 -5z"/>
</g>
</svg>
